^D:\GOLDRUSH\NEWCODE\GOLDRUSH\COCOS2D\COCOS\AUDIO\WP8\AUDIO.CPP
/c /I..\Include /ID:\GoldRush\NewCode\GoldRush\cocos2d\cocos\2d\..\..\cocos\platform\wp8 /ID:\GoldRush\NewCode\GoldRush\cocos2d\cocos\2d\..\..\cocos\platform\winrt /I"D:\GoldRush\NewCode\GoldRush\cocos2d\cocos\2d\..\..\\external\winrt-specific\angle\include" /ID:\GoldRush\NewCode\GoldRush\cocos2d\cocos\2d\..\..\\external\curl\include\wp8 /I"D:\GoldRush\NewCode\GoldRush\cocos2d\cocos\2d\..\..\\external\winrt-specific" /ID:\GoldRush\NewCode\GoldRush\cocos2d\cocos\2d\..\..\cocos\audio\include /ID:\GoldRush\NewCode\GoldRush\cocos2d\cocos\2d\..\..\cocos /ID:\GoldRush\NewCode\GoldRush\cocos2d\cocos\2d\..\..\external\chipmunk\include\chipmunk /ID:\GoldRush\NewCode\GoldRush\cocos2d\cocos\2d\..\..\external /I"D:\GoldRush\NewCode\GoldRush\cocos2d\cocos\2d\..\..\cocos\editor-support" /ID:\GoldRush\NewCode\GoldRush\cocos2d\cocos\2d\..\..\ /ID:\GoldRush\NewCode\GoldRush\cocos2d\cocos\2d\..\..\external\ConvertUTF /I"D:\GoldRush\NewCode\GoldRush\cocos2d\cocos\2d\..\..\external\wp8-specific\zlib\include" /AI"C:\Program Files (x86)\Windows Phone Kits\8.0\Windows Metadata" /Z7 /ZW /nologo /W1 /WX- /O2 /Oy- /GL /D WP8 /D NDEBUG /D _CRT_SECURE_NO_WARNINGS /D _LIB /D NDEBUG /D _VARIADIC_MAX=10 /D NOMINMAX /D GL_GLEXT_PROTOTYPES /D _CRT_SECURE_NO_WARNINGS /D _SCL_SECURE_NO_WARNINGS /D _VARIADIC_MAX=10 /D NOMINMAX /D GL_GLEXT_PROTOTYPES /D _CRT_SECURE_NO_WARNINGS /D _SCL_SECURE_NO_WARNINGS /D WINAPI_FAMILY=WINAPI_FAMILY_PHONE_APP /Gm- /EHsc /MD /GS /fp:precise /Zc:wchar_t /Zc:forScope /Fo"ARM\RELEASE\\" /Fd"ARM\RELEASE\VC110.PDB" /Gd /TP /wd4251 /FU"C:\Program Files (x86)\Microsoft Visual Studio 11.0\VC\WPSDK\WP80\lib\arm\platform.winmd" /FU"C:\Program Files (x86)\Windows Phone Kits\8.0\Windows Metadata\Windows.winmd" /analyze- D:\GOLDRUSH\NEWCODE\GOLDRUSH\COCOS2D\COCOS\AUDIO\WP8\AUDIO.CPP
^D:\GOLDRUSH\NEWCODE\GOLDRUSH\COCOS2D\COCOS\AUDIO\WP8\MEDIASTREAMER.CPP
/c /I..\Include /ID:\GoldRush\NewCode\GoldRush\cocos2d\cocos\2d\..\..\cocos\platform\wp8 /ID:\GoldRush\NewCode\GoldRush\cocos2d\cocos\2d\..\..\cocos\platform\winrt /I"D:\GoldRush\NewCode\GoldRush\cocos2d\cocos\2d\..\..\\external\winrt-specific\angle\include" /ID:\GoldRush\NewCode\GoldRush\cocos2d\cocos\2d\..\..\\external\curl\include\wp8 /I"D:\GoldRush\NewCode\GoldRush\cocos2d\cocos\2d\..\..\\external\winrt-specific" /ID:\GoldRush\NewCode\GoldRush\cocos2d\cocos\2d\..\..\cocos\audio\include /ID:\GoldRush\NewCode\GoldRush\cocos2d\cocos\2d\..\..\cocos /ID:\GoldRush\NewCode\GoldRush\cocos2d\cocos\2d\..\..\external\chipmunk\include\chipmunk /ID:\GoldRush\NewCode\GoldRush\cocos2d\cocos\2d\..\..\external /I"D:\GoldRush\NewCode\GoldRush\cocos2d\cocos\2d\..\..\cocos\editor-support" /ID:\GoldRush\NewCode\GoldRush\cocos2d\cocos\2d\..\..\ /ID:\GoldRush\NewCode\GoldRush\cocos2d\cocos\2d\..\..\external\ConvertUTF /I"D:\GoldRush\NewCode\GoldRush\cocos2d\cocos\2d\..\..\external\wp8-specific\zlib\include" /AI"C:\Program Files (x86)\Windows Phone Kits\8.0\Windows Metadata" /Z7 /ZW /nologo /W1 /WX- /O2 /Oy- /GL /D WP8 /D NDEBUG /D _CRT_SECURE_NO_WARNINGS /D _LIB /D NDEBUG /D _VARIADIC_MAX=10 /D NOMINMAX /D GL_GLEXT_PROTOTYPES /D _CRT_SECURE_NO_WARNINGS /D _SCL_SECURE_NO_WARNINGS /D _VARIADIC_MAX=10 /D NOMINMAX /D GL_GLEXT_PROTOTYPES /D _CRT_SECURE_NO_WARNINGS /D _SCL_SECURE_NO_WARNINGS /D WINAPI_FAMILY=WINAPI_FAMILY_PHONE_APP /Gm- /EHsc /MD /GS /fp:precise /Zc:wchar_t /Zc:forScope /Fo"ARM\RELEASE\\" /Fd"ARM\RELEASE\VC110.PDB" /Gd /TP /wd4251 /FU"C:\Program Files (x86)\Microsoft Visual Studio 11.0\VC\WPSDK\WP80\lib\arm\platform.winmd" /FU"C:\Program Files (x86)\Windows Phone Kits\8.0\Windows Metadata\Windows.winmd" /analyze- D:\GOLDRUSH\NEWCODE\GOLDRUSH\COCOS2D\COCOS\AUDIO\WP8\MEDIASTREAMER.CPP
^D:\GOLDRUSH\NEWCODE\GOLDRUSH\COCOS2D\COCOS\AUDIO\WP8\SIMPLEAUDIOENGINE.CPP
/c /I..\Include /ID:\GoldRush\NewCode\GoldRush\cocos2d\cocos\2d\..\..\cocos\platform\wp8 /ID:\GoldRush\NewCode\GoldRush\cocos2d\cocos\2d\..\..\cocos\platform\winrt /I"D:\GoldRush\NewCode\GoldRush\cocos2d\cocos\2d\..\..\\external\winrt-specific\angle\include" /ID:\GoldRush\NewCode\GoldRush\cocos2d\cocos\2d\..\..\\external\curl\include\wp8 /I"D:\GoldRush\NewCode\GoldRush\cocos2d\cocos\2d\..\..\\external\winrt-specific" /ID:\GoldRush\NewCode\GoldRush\cocos2d\cocos\2d\..\..\cocos\audio\include /ID:\GoldRush\NewCode\GoldRush\cocos2d\cocos\2d\..\..\cocos /ID:\GoldRush\NewCode\GoldRush\cocos2d\cocos\2d\..\..\external\chipmunk\include\chipmunk /ID:\GoldRush\NewCode\GoldRush\cocos2d\cocos\2d\..\..\external /I"D:\GoldRush\NewCode\GoldRush\cocos2d\cocos\2d\..\..\cocos\editor-support" /ID:\GoldRush\NewCode\GoldRush\cocos2d\cocos\2d\..\..\ /ID:\GoldRush\NewCode\GoldRush\cocos2d\cocos\2d\..\..\external\ConvertUTF /I"D:\GoldRush\NewCode\GoldRush\cocos2d\cocos\2d\..\..\external\wp8-specific\zlib\include" /AI"C:\Program Files (x86)\Windows Phone Kits\8.0\Windows Metadata" /Z7 /ZW /nologo /W1 /WX- /O2 /Oy- /GL /D WP8 /D NDEBUG /D _CRT_SECURE_NO_WARNINGS /D _LIB /D NDEBUG /D _VARIADIC_MAX=10 /D NOMINMAX /D GL_GLEXT_PROTOTYPES /D _CRT_SECURE_NO_WARNINGS /D _SCL_SECURE_NO_WARNINGS /D _VARIADIC_MAX=10 /D NOMINMAX /D GL_GLEXT_PROTOTYPES /D _CRT_SECURE_NO_WARNINGS /D _SCL_SECURE_NO_WARNINGS /D WINAPI_FAMILY=WINAPI_FAMILY_PHONE_APP /Gm- /EHsc /MD /GS /fp:precise /Zc:wchar_t /Zc:forScope /Fo"ARM\RELEASE\\" /Fd"ARM\RELEASE\VC110.PDB" /Gd /TP /wd4251 /FU"C:\Program Files (x86)\Microsoft Visual Studio 11.0\VC\WPSDK\WP80\lib\arm\platform.winmd" /FU"C:\Program Files (x86)\Windows Phone Kits\8.0\Windows Metadata\Windows.winmd" /analyze- D:\GOLDRUSH\NEWCODE\GOLDRUSH\COCOS2D\COCOS\AUDIO\WP8\SIMPLEAUDIOENGINE.CPP
