^D:\GOLDRUSH\NEWCODE\GOLDRUSH\COCOS2D\COCOS\AUDIO\PROJ.WP8\ARM\RELEASE\AUDIO.OBJ|D:\GOLDRUSH\NEWCODE\GOLDRUSH\COCOS2D\COCOS\AUDIO\PROJ.WP8\ARM\RELEASE\MEDIASTREAMER.OBJ|D:\GOLDRUSH\NEWCODE\GOLDRUSH\COCOS2D\COCOS\AUDIO\PROJ.WP8\ARM\RELEASE\SIMPLEAUDIOENGINE.OBJ
C:\WINDOWS\SYSTEM32\TZRES.DLL
D:\GOLDRUSH\NEWCODE\GOLDRUSH\COCOS2D\COCOS\AUDIO\PROJ.WP8\ARM\RELEASE\AUDIO.OBJ
D:\GOLDRUSH\NEWCODE\GOLDRUSH\COCOS2D\COCOS\AUDIO\PROJ.WP8\ARM\RELEASE\MEDIASTREAMER.OBJ
D:\GOLDRUSH\NEWCODE\GOLDRUSH\COCOS2D\COCOS\AUDIO\PROJ.WP8\ARM\RELEASE\SIMPLEAUDIOENGINE.OBJ
C:\WINDOWS\GLOBALIZATION\SORTING\SORTDEFAULT.NLS
C:\WINDOWS\MICROSOFT.NET\FRAMEWORK\V2.0.50727\MSCORWKS.DLL
C:\WINDOWS\MICROSOFT.NET\FRAMEWORK\V4.0.30319\CLR.DLL
C:\PROGRAM FILES (X86)\MICROSOFT VISUAL STUDIO 11.0\VC\WPSDK\WP80\BIN\X86_ARM\LINK.EXE.CONFIG
