^D:\GOLDRUSH\NEWCODE\GOLDRUSH\COCOS2D\COCOS\STORAGE\LOCAL-STORAGE\PROJ.WP8\DEBUG\LOCALSTORAGE.OBJ
C:\WINDOWS\SYSTEM32\TZRES.DLL
D:\GOLDRUSH\NEWCODE\GOLDRUSH\COCOS2D\COCOS\STORAGE\LOCAL-STORAGE\PROJ.WP8\DEBUG\LOCALSTORAGE.OBJ
